Android Tools
TODO :

1. PRIORITY

- Fix Console when going to the ScreenResizer
_______________________________________________________

2. Important

- Edit config popup (save)

_______________________________________________________

3. Improvements

- Global use of status bar

- UI optimization (Toolbar with device combo box, detect devices button, clear console, export console to txt, show preferences ?, help, about)
status bar

- Add cancel current command button

- Find way to stop video recording
